<svg id="Page-1" xmlns="http://www.w3.org/2000/svg" width="75" height="75.002" viewBox="0 0 75 75.002">
  <g id="_037---Wine-Store" data-name="037---Wine-Store" transform="translate(0 0)">
    <path id="Shape" d="M25.75,28H8.25A1.25,1.25,0,0,0,7,29.25v12.5A1.25,1.25,0,0,0,8.25,43h17.5A1.25,1.25,0,0,0,27,41.75V29.25A1.25,1.25,0,0,0,25.75,28ZM24.5,40.5H9.5v-10h15Z" transform="translate(1.75 7)" fill="#919191"/>
    <path id="Shape-2" data-name="Shape" d="M17.25,37a1.25,1.25,0,0,0,1.25-1.25v-2.5a1.25,1.25,0,1,0-2.5,0v2.5A1.25,1.25,0,0,0,17.25,37Z" transform="translate(4 8)" fill="#919191"/>
    <path id="Shape-3" data-name="Shape" d="M13.25,37a1.25,1.25,0,0,0,1.25-1.25v-2.5a1.25,1.25,0,1,0-2.5,0v2.5A1.25,1.25,0,0,0,13.25,37Z" transform="translate(3 8)" fill="#919191"/>
    <path id="Shape-4" data-name="Shape" d="M22.25,23.75A1.25,1.25,0,0,0,23.5,22.5V21.25a1.25,1.25,0,1,0-2.5,0V22.5A1.25,1.25,0,0,0,22.25,23.75Z" transform="translate(5.25 5)" fill="#919191"/>
    <path id="Shape-5" data-name="Shape" d="M18.25,23.75A1.25,1.25,0,0,0,19.5,22.5V21.25a1.25,1.25,0,1,0-2.5,0V22.5A1.25,1.25,0,0,0,18.25,23.75Z" transform="translate(4.25 5)" fill="#919191"/>
    <path id="Shape-6" data-name="Shape" d="M72.008,6.574l-3.784.75a4.361,4.361,0,0,0-7.8.176H57.387a9.277,9.277,0,0,1-3.9-.875A8.992,8.992,0,0,1,50.336,4.2,11.637,11.637,0,0,0,41.362,0H18.75A6.257,6.257,0,0,0,12.5,6.25V15a6.257,6.257,0,0,0-6.25,6.25V30A6.257,6.257,0,0,0,0,36.25v12.5A6.257,6.257,0,0,0,6.25,55H28.875a11.645,11.645,0,0,0,8.967-4.2,9.134,9.134,0,0,1,5.845-3.214,6.192,6.192,0,0,1-1.765,3.73,8.776,8.776,0,0,0-1.7,9.891l-1.452,1.25a5,5,0,0,0,0,7.592L43.14,73.8A5.006,5.006,0,0,0,46.39,75H70a5,5,0,0,0,5-5V62.5a5,5,0,0,0-5-5H46.386a5,5,0,0,0-3.25,1.2l-.925.792a6.27,6.27,0,0,1,1.475-6.412A8.685,8.685,0,0,0,46.22,47.5h1.7a4.36,4.36,0,0,0,3.69,2.492,4.23,4.23,0,0,0,3.172-1.176,4.649,4.649,0,0,0,.875-1.161l3.857.771A2.491,2.491,0,0,0,62.5,45.975v-6.95a2.5,2.5,0,0,0-2.991-2.451l-3.785.756a4.36,4.36,0,0,0-7.8.17h-3.04a9.2,9.2,0,0,1-2.214-.279A11.812,11.812,0,0,0,44.086,35.8a9.14,9.14,0,0,1,7.051-3.3H54.17a4.336,4.336,0,0,0,.859,1.221A4.4,4.4,0,0,0,57.875,35a4.25,4.25,0,0,0,3.17-1.19,4.611,4.611,0,0,0,.861-1.154l3.859.771a2.491,2.491,0,0,0,2.985-2.452v-6.95a2.5,2.5,0,0,0-2.991-2.451l-3.784.756a4.361,4.361,0,0,0-7.8.17H51.137a9.183,9.183,0,0,1-2.215-.284A11.82,11.82,0,0,0,50.336,20.8a9.14,9.14,0,0,1,7.051-3.3H60.42a4.336,4.336,0,0,0,.859,1.221A4.4,4.4,0,0,0,64.125,20a4.265,4.265,0,0,0,3.17-1.19,4.611,4.611,0,0,0,.861-1.154l3.859.771A2.491,2.491,0,0,0,75,15.975V9.025a2.5,2.5,0,0,0-2.991-2.451ZM46.386,60H70a2.5,2.5,0,0,1,2.5,2.5V70A2.5,2.5,0,0,1,70,72.5H46.386a2.507,2.507,0,0,1-1.625-.6l-4.375-3.75a2.5,2.5,0,0,1,0-3.8l1.2-1.032c.109.125.209.25.326.365l.96.96A3.689,3.689,0,0,0,42.5,66.25a3.75,3.75,0,1,0,3.75-3.75,3.689,3.689,0,0,0-1.606.375l-.96-.96c-.071-.071-.131-.149-.2-.222L44.76,60.6a2.5,2.5,0,0,1,1.626-.6Zm-1.011,5.375.009-.014a1.259,1.259,0,1,1-.023.022ZM35.914,49.2a9.142,9.142,0,0,1-7.039,3.3H6.25A3.75,3.75,0,0,1,2.5,48.75V36.25A3.75,3.75,0,0,1,6.25,32.5H28.875a9.142,9.142,0,0,1,7.045,3.3,11.642,11.642,0,0,0,3.387,2.764,1.389,1.389,0,0,0,.2.108,11.625,11.625,0,0,0,4.244,1.266v5.125A11.625,11.625,0,0,0,35.914,49.2ZM32.5,30.584A11.675,11.675,0,0,0,28.875,30H17.5V22.5h15ZM60,39.025v6.95l-3.75-.75v-5.45ZM48.75,41.25A1.25,1.25,0,0,0,50,40v-.906a.9.9,0,0,0,.037-.1,1.875,1.875,0,0,1,3.712.375v6.05a2.164,2.164,0,0,1-.681,1.571,1.75,1.75,0,0,1-1.309.5,1.869,1.869,0,0,1-1.724-1.5A.833.833,0,0,0,50,45.906V45a1.25,1.25,0,1,0-2.5,0H46.25V40H47.5a1.25,1.25,0,0,0,1.25,1.25Zm17.5-17.225v6.95l-3.75-.75v-5.45ZM53.75,25a1.25,1.25,0,0,0,2.5,0v-.906a.9.9,0,0,0,.037-.1A1.875,1.875,0,0,1,60,24.372v6.05a2.171,2.171,0,0,1-.679,1.569,1.761,1.761,0,0,1-1.3.509,1.875,1.875,0,0,1-1.73-1.5.833.833,0,0,0-.036-.094V30a1.25,1.25,0,0,0-2.5,0H51.137a11.637,11.637,0,0,0-8.974,4.2A9.089,9.089,0,0,1,40,36.087,9.154,9.154,0,0,1,37.837,34.2,11.681,11.681,0,0,0,35,31.741V21.25A1.25,1.25,0,0,0,33.75,20H16.25A1.25,1.25,0,0,0,15,21.25V30H8.75V21.25A3.75,3.75,0,0,1,12.5,17.5H35.112a9.142,9.142,0,0,1,7.051,3.3,11.421,11.421,0,0,0,3.367,2.75,1.25,1.25,0,0,0,.276.147c.125.064.25.14.375.2A11.777,11.777,0,0,0,51.137,25Zm-15-9.416A11.707,11.707,0,0,0,35.112,15H23.75V7.5h15ZM64.266,17.5a1.875,1.875,0,0,1-1.73-1.5.833.833,0,0,0-.036-.094V15A1.25,1.25,0,1,0,60,15H57.387a11.637,11.637,0,0,0-8.974,4.2,9.107,9.107,0,0,1-2.164,1.887A9.011,9.011,0,0,1,44.086,19.2a11.64,11.64,0,0,0-2.836-2.46V6.25A1.25,1.25,0,0,0,40,5H22.5a1.25,1.25,0,0,0-1.25,1.25V15H15V6.25A3.75,3.75,0,0,1,18.75,2.5H41.362a9.142,9.142,0,0,1,7.051,3.3,11.447,11.447,0,0,0,4.019,3.1A11.777,11.777,0,0,0,57.387,10H60a1.25,1.25,0,1,0,2.5,0V9.094a.9.9,0,0,0,.037-.1,1.875,1.875,0,0,1,3.712.377v6.05a2.171,2.171,0,0,1-.679,1.569,1.75,1.75,0,0,1-1.3.506ZM72.5,15.975l-3.75-.75V9.775l3.75-.75Z" transform="translate(0 0)" fill="#919191"/>
    <path id="Shape-7" data-name="Shape" d="M27.25,11.75A1.25,1.25,0,0,0,28.5,10.5V9.25a1.25,1.25,0,1,0-2.5,0V10.5A1.25,1.25,0,0,0,27.25,11.75Z" transform="translate(6.5 2)" fill="#919191"/>
    <path id="Shape-8" data-name="Shape" d="M23.25,11.75A1.25,1.25,0,0,0,24.5,10.5V9.25a1.25,1.25,0,1,0-2.5,0V10.5A1.25,1.25,0,0,0,23.25,11.75Z" transform="translate(5.5 2)" fill="#919191"/>
    <path id="Shape-9" data-name="Shape" d="M43.25,52.5H57A1.25,1.25,0,0,0,57,50H43.25a1.25,1.25,0,0,0,0,2.5Z" transform="translate(10.5 12.5)" fill="#919191"/>
    <path id="Shape-10" data-name="Shape" d="M43.25,56.5h7.5a1.25,1.25,0,0,0,0-2.5h-7.5a1.25,1.25,0,0,0,0,2.5Z" transform="translate(10.5 13.5)" fill="#919191"/>
  </g>
</svg>
