<svg xmlns="http://www.w3.org/2000/svg" width="74.962" height="75.001" viewBox="0 0 74.962 75.001">
  <g id="Page-1" transform="translate(-0.03 0.001)">
    <g id="_001---Wine-Barrel" data-name="001---Wine-Barrel" transform="translate(0.03 -0.001)">
      <path id="Shape" d="M61.6,34.451A29.519,29.519,0,0,1,58,20.35V15.581a4.365,4.365,0,0,0-1.25-8.267V3.5A2.5,2.5,0,0,0,54.25,1h-5a2.5,2.5,0,0,0-2.5,2.5V7.311A4.325,4.325,0,0,0,43,11.625a4.392,4.392,0,0,0,2.5,3.954V20.35a29.8,29.8,0,0,1-.911,7.28A29.488,29.488,0,0,1,41.9,34.451,32.041,32.041,0,0,0,38,49.75v20A6.257,6.257,0,0,0,44.25,76h15a6.257,6.257,0,0,0,6.25-6.25v-20a32.25,32.25,0,0,0-.989-7.895A31.9,31.9,0,0,0,61.6,34.451ZM40.5,51H63V63.5H40.5ZM49.25,3.5h5V7.25h-5ZM44.1,35.647a31.929,31.929,0,0,0,2.915-7.4A32.279,32.279,0,0,0,48,20.35V16h1.25a1.25,1.25,0,1,0,0-2.5H47.092c-.033-.01-.06-.03-.1-.037a1.875,1.875,0,0,1,.378-3.712h8.75A1.875,1.875,0,0,1,58,11.625a1.9,1.9,0,0,1-.546,1.329,1.866,1.866,0,0,1-.954.509c-.035.007-.061.028-.1.037H54.25a1.25,1.25,0,1,0,0,2.5H55.5v4.35a32.032,32.032,0,0,0,3.9,15.3,29.51,29.51,0,0,1,2.686,6.821,29.943,29.943,0,0,1,.875,6.031H40.54A29.527,29.527,0,0,1,44.1,35.647ZM59.25,73.5h-15a3.75,3.75,0,0,1-3.75-3.75V66H63v3.75A3.75,3.75,0,0,1,59.25,73.5Z" transform="translate(9.462 -0.999)" fill="#919191"/>
      <path id="Shape-2" data-name="Shape" d="M52.25,43h-5a1.25,1.25,0,1,0,0,2.5h5a1.25,1.25,0,1,0,0-2.5Z" transform="translate(11.462 9.501)" fill="#919191"/>
      <path id="Shape-3" data-name="Shape" d="M52.25,47h-5a1.25,1.25,0,0,0,0,2.5h5a1.25,1.25,0,0,0,0-2.5Z" transform="translate(11.462 10.501)" fill="#919191"/>
      <path id="Shape-4" data-name="Shape" d="M37.492,76a37.4,37.4,0,0,0,7.462-.75,1.25,1.25,0,1,0-.5-2.45A35,35,0,1,1,51.382,6.36a1.251,1.251,0,1,0,1-2.294A37.5,37.5,0,1,0,37.492,76Z" transform="translate(-0.03 -0.999)" fill="#919191"/>
      <path id="Shape-5" data-name="Shape" d="M50.243,18.75a1.25,1.25,0,0,0,0-2.5h-34.9a30.017,30.017,0,0,1,32.25-6.637,1.25,1.25,0,1,0,.917-2.325A32.5,32.5,0,1,0,36.493,70,31.625,31.625,0,0,0,43,69.336a1.25,1.25,0,1,0-.517-2.446,29.057,29.057,0,0,1-5.991.61,29.9,29.9,0,0,1-21.154-8.75h27.4a1.25,1.25,0,1,0,0-2.5H13.1a30,30,0,0,1-4.409-7.5H42.768a1.25,1.25,0,1,0,0-2.5H7.8a29.857,29.857,0,0,1-1.274-7.5H44.568a1.25,1.25,0,0,0,0-2.5H6.524A29.857,29.857,0,0,1,7.8,28.75H48.923a1.25,1.25,0,1,0,0-2.5H8.69a30,30,0,0,1,4.409-7.5Z" transform="translate(0.97 0.001)" fill="#919191"/>
    </g>
  </g>
</svg>
