<svg id="_013---Wine-Glass-and-Bottle" data-name="013---Wine-Glass-and-Bottle" xmlns="http://www.w3.org/2000/svg" width="63.337" height="74.588" viewBox="0 0 63.337 74.588">
  <path id="Shape" d="M35.553,26.479a29.326,29.326,0,0,1-2.671,6.784A31.865,31.865,0,0,0,29,48.482v19.89a6.223,6.223,0,0,0,6.216,6.216H50.133a6.223,6.223,0,0,0,6.216-6.216V48.482a32.073,32.073,0,0,0-.983-7.852,31.729,31.729,0,0,0-2.9-7.363A29.357,29.357,0,0,1,48.89,19.244V14.5a4.341,4.341,0,0,0-1.243-8.222V2.486A2.486,2.486,0,0,0,45.161,0H40.188A2.486,2.486,0,0,0,37.7,2.486v3.79a4.3,4.3,0,0,0-3.729,4.29A4.368,4.368,0,0,0,36.459,14.5v4.745a29.639,29.639,0,0,1-.906,7.235Zm18.31,35.678H31.486V49.725H53.863ZM50.133,72.1H35.216a3.729,3.729,0,0,1-3.729-3.729V64.643H53.863v3.729A3.729,3.729,0,0,1,50.133,72.1ZM40.188,2.486h4.973V6.216H40.188ZM37.963,27.093a32.1,32.1,0,0,0,.982-7.849V14.918h1.243a1.243,1.243,0,0,0,0-2.486H38.043c-.032-.01-.06-.03-.094-.037A1.865,1.865,0,0,1,38.324,8.7h8.7a1.865,1.865,0,0,1,1.865,1.865,1.886,1.886,0,0,1-.543,1.321,1.856,1.856,0,0,1-.949.506c-.035.007-.061.027-.094.037H45.161a1.243,1.243,0,0,0,0,2.486H46.4v4.326a31.857,31.857,0,0,0,3.881,15.214,29.348,29.348,0,0,1,2.671,6.784,29.778,29.778,0,0,1,.87,6h-22.3a29.365,29.365,0,0,1,3.538-12.782,31.754,31.754,0,0,0,2.9-7.364Z" transform="translate(6.988 0)" fill="#919191"/>
  <path id="Shape-2" data-name="Shape" d="M38.243,44.486h4.973a1.243,1.243,0,0,0,0-2.486H38.243a1.243,1.243,0,1,0,0,2.486Z" transform="translate(8.933 10.212)" fill="#919191"/>
  <path id="Shape-3" data-name="Shape" d="M38.243,48.486h4.973a1.243,1.243,0,1,0,0-2.486H38.243a1.243,1.243,0,1,0,0,2.486Z" transform="translate(8.933 11.184)" fill="#919191"/>
  <path id="Shape-4" data-name="Shape" d="M26.8,40.386a13.757,13.757,0,0,0,6.356-8.508,13.185,13.185,0,0,0,.175-5L29.959,2.149A2.5,2.5,0,0,0,27.495,0H6.046A2.5,2.5,0,0,0,3.582,2.149L.21,26.877a13.177,13.177,0,0,0,.175,5,13.755,13.755,0,0,0,6.356,8.509,11.392,11.392,0,0,1,5.677,9.729V64.908a1.261,1.261,0,0,1-1.1,1.233C6.359,66.892,1.231,69.33,1.231,72.1a2.486,2.486,0,0,0,2.486,2.486H29.823A2.486,2.486,0,0,0,32.309,72.1c0-2.772-5.128-5.21-10.087-5.967a1.261,1.261,0,0,1-1.1-1.231V50.111A11.392,11.392,0,0,1,26.8,40.386ZM6.046,2.486H27.495l2.362,17.286a9.406,9.406,0,0,1-2.179-1.341,9.429,9.429,0,0,0-12.27,0,6.97,6.97,0,0,1-9.287,0,14.023,14.023,0,0,0-2.061-1.35Zm15.8,66.11c5.134.781,7.822,2.884,7.975,3.506l-26.106.037c.155-.665,2.843-2.762,7.977-3.543A3.729,3.729,0,0,0,14.905,64.9V50.111A13.885,13.885,0,0,0,8,38.24a11.26,11.26,0,0,1-5.2-6.962,10.738,10.738,0,0,1-.124-4.066l1.018-7.459c.315.21.622.435.932.669a9.123,9.123,0,0,0,6.127,2.265,9.151,9.151,0,0,0,6.141-2.27,6.97,6.97,0,0,1,9.286,0,9.877,9.877,0,0,0,4.039,2.051l.646,4.743a10.746,10.746,0,0,1-.124,4.068,11.262,11.262,0,0,1-5.2,6.962,13.885,13.885,0,0,0-6.9,11.874V64.908A3.729,3.729,0,0,0,21.848,68.6Z" transform="translate(-0.05 0)" fill="#919191"/>
  <path id="Shape-5" data-name="Shape" d="M9.551,28.78a6.264,6.264,0,0,1-2.9-3.869,6.121,6.121,0,0,1-.026-2.2,1.243,1.243,0,1,0-2.464-.336,8.445,8.445,0,0,0,.072,3.136,8.758,8.758,0,0,0,4.049,5.415A1.243,1.243,0,0,0,9.546,28.78Z" transform="translate(0.922 5.178)" fill="#919191"/>
</svg>
