<svg xmlns="http://www.w3.org/2000/svg" width="114.306" height="35.751" viewBox="0 0 114.306 35.751">
  <g id="Group_6589" data-name="Group 6589" transform="translate(-350.642 -399.069)">
    <g id="Group_75" data-name="Group 75" transform="translate(362.113 428.575)">
      <path id="Path_99" data-name="Path 99" d="M397.384,771.043l-2.04,6.023h-.615l-1.662-4.933-1.671,4.933h-.607l-2.049-6.023h.66l1.7,5.083,1.7-5.083h.545l1.7,5.074,1.7-5.074Z" transform="translate(-388.74 -770.911)" fill="#f8ad5f"/>
      <path id="Path_100" data-name="Path 100" d="M427.946,771.043v5.979h-.624v-5.979Z" transform="translate(-415.706 -770.911)" fill="#f8ad5f"/>
      <path id="Path_101" data-name="Path 101" d="M445.88,771.043v5.979h-.537l-3.9-4.845v4.845h-.625v-5.979h.51l3.931,4.907v-4.907Z" transform="translate(-425.136 -770.911)" fill="#f8ad5f"/>
      <path id="Path_102" data-name="Path 102" d="M469.713,771.614v2.145h3.175v.581h-3.175v2.11h3.526v.571h-4.151v-5.979h4.151v.571Z" transform="translate(-444.897 -770.911)" fill="#f8ad5f"/>
      <path id="Path_103" data-name="Path 103" d="M510.769,776.715l-.826-.739a2.576,2.576,0,0,1-1.952.853,2.288,2.288,0,0,1-1.53-.484,1.594,1.594,0,0,1-.572-1.266,1.627,1.627,0,0,1,.334-1.012,2.018,2.018,0,0,1,.906-.659,1.915,1.915,0,0,1-.571-1.249,1.439,1.439,0,0,1,.475-1.117,1.783,1.783,0,0,1,1.231-.44,1.681,1.681,0,0,1,1.174.418,1.744,1.744,0,0,1,.541,1.156h-.6a1.186,1.186,0,0,0-.36-.756,1.081,1.081,0,0,0-.756-.273,1.1,1.1,0,0,0-.787.286.975.975,0,0,0-.3.743,1.246,1.246,0,0,0,.084.471,1.482,1.482,0,0,0,.339.462l.448.457.712.624,1.125,1,.959-1.372h.633l-1.152,1.68-.035.052,1.292,1.161Zm-2.77-.422a2.082,2.082,0,0,0,1.539-.677l-1.284-1.143-.739-.669a1.818,1.818,0,0,0-.761.515,1.138,1.138,0,0,0-.277.752,1.114,1.114,0,0,0,.422.879A1.687,1.687,0,0,0,508,776.293Z" transform="translate(-470.617 -770.604)" fill="#f8ad5f"/>
      <path id="Path_104" data-name="Path 104" d="M549.365,770.6a2.719,2.719,0,0,1,1.583.449,1.771,1.771,0,0,1,.748,1.3h-.616q-.22-1.2-1.679-1.2a1.778,1.778,0,0,0-1.1.308.981.981,0,0,0-.409.826q0,.783,1.231,1.02l.906.176q1.662.317,1.662,1.557a1.618,1.618,0,0,1-.616,1.319,2.5,2.5,0,0,1-1.609.493,2.639,2.639,0,0,1-1.728-.537,2.159,2.159,0,0,1-.761-1.5h.616a1.661,1.661,0,0,0,.6,1.095,2.042,2.042,0,0,0,1.3.383,1.829,1.829,0,0,0,1.134-.321,1.024,1.024,0,0,0,.422-.857q0-.792-1.125-1.02l-1.038-.2q-1.653-.317-1.653-1.565a1.51,1.51,0,0,1,.58-1.24A2.41,2.41,0,0,1,549.365,770.6Z" transform="translate(-499.339 -770.604)" fill="#f8ad5f"/>
      <path id="Path_105" data-name="Path 105" d="M573.035,771.043h2.084a2.423,2.423,0,0,1,1.653.545,1.782,1.782,0,0,1,.633,1.433,1.876,1.876,0,0,1-.651,1.477,2.533,2.533,0,0,1-1.715.554h-1.381v1.969h-.624Zm.624,3.438h1.433a1.793,1.793,0,0,0,1.231-.4,1.349,1.349,0,0,0,.466-1.056,1.26,1.26,0,0,0-.466-1.02,1.865,1.865,0,0,0-1.231-.387h-1.433Z" transform="translate(-517.547 -770.911)" fill="#f8ad5f"/>
      <path id="Path_106" data-name="Path 106" d="M597.843,771.043v5.979h-.624v-5.979Z" transform="translate(-534.45 -770.911)" fill="#f8ad5f"/>
      <path id="Path_107" data-name="Path 107" d="M612.823,774.851h-1.486v2.172h-.624v-5.979h2.225a2.53,2.53,0,0,1,1.644.519,1.7,1.7,0,0,1,.634,1.39,1.733,1.733,0,0,1-.444,1.2,2.125,2.125,0,0,1-1.218.642l1.917,2.224h-.783Zm-1.486-.572h1.583a1.908,1.908,0,0,0,1.209-.361,1.163,1.163,0,0,0,.462-.967,1.177,1.177,0,0,0-.462-.972,1.9,1.9,0,0,0-1.209-.365h-1.583Z" transform="translate(-543.881 -770.911)" fill="#f8ad5f"/>
      <path id="Path_108" data-name="Path 108" d="M636.571,771.043v5.979h-.625v-5.979Z" transform="translate(-561.517 -770.911)" fill="#f8ad5f"/>
      <path id="Path_109" data-name="Path 109" d="M652.557,771.614h-2.225v5.408h-.624v-5.408h-2.225v-.571h5.074Z" transform="translate(-569.581 -770.911)" fill="#f8ad5f"/>
      <path id="Path_110" data-name="Path 110" d="M674.021,770.6a2.719,2.719,0,0,1,1.583.449,1.771,1.771,0,0,1,.748,1.3h-.616q-.22-1.2-1.679-1.2a1.776,1.776,0,0,0-1.1.308.981.981,0,0,0-.409.826q0,.783,1.231,1.02l.906.176q1.662.317,1.662,1.557a1.619,1.619,0,0,1-.616,1.319,2.5,2.5,0,0,1-1.609.493,2.639,2.639,0,0,1-1.728-.537,2.154,2.154,0,0,1-.76-1.5h.615a1.662,1.662,0,0,0,.6,1.095,2.042,2.042,0,0,0,1.3.383,1.829,1.829,0,0,0,1.135-.321,1.023,1.023,0,0,0,.422-.857q0-.792-1.125-1.02l-1.038-.2q-1.654-.317-1.654-1.565a1.51,1.51,0,0,1,.581-1.24A2.412,2.412,0,0,1,674.021,770.6Z" transform="translate(-586.463 -770.604)" fill="#f8ad5f"/>
    </g>
    <g id="r8IpQj" transform="translate(350.642 399.069)">
      <g id="Group_77" data-name="Group 77" transform="translate(0 0)">
        <path id="Path_119" data-name="Path 119" d="M569.151,697.293A12.123,12.123,0,0,1,557,685.131a12.242,12.242,0,1,1,24.485.039A12.064,12.064,0,0,1,569.151,697.293Zm9.428-12.17a9.243,9.243,0,0,0-9.249-9.387,9.348,9.348,0,1,0-.044,18.7A9.159,9.159,0,0,0,578.579,685.123Z" transform="translate(-494.871 -672.788)" fill="#f8ad5f"/>
        <path id="Path_120" data-name="Path 120" d="M389.25,697.385V673.171l7.056,5.314,7.036-5.28v24.177h-2.7V678.912l-4.293,3.138-4.319-3.106v18.442Z" transform="translate(-377.626 -672.999)" fill="#f8ad5f"/>
        <path id="Path_121" data-name="Path 121" d="M444.706,691.505v5.483h-2.966c0-2.084,0-4.1,0-6.121,0-4.3-.023-8.609.019-12.914a4.984,4.984,0,0,1,2.885-4.784,4.356,4.356,0,0,1,5.041.5,5.4,5.4,0,0,1,1.974,3.2c.182,6.676.091,13.359.091,20.142h-2.814v-5.5Zm4.227-3.11c0-3.533.008-6.982,0-10.43,0-1.386-.625-2.367-2.093-2.384s-2.121.964-2.143,2.341c-.038,2.391-.021,4.784-.025,7.176q0,1.651,0,3.3Z" transform="translate(-414.309 -672.601)" fill="#f8ad5f"/>
        <path id="Path_122" data-name="Path 122" d="M644.286,673.083c5.338-.453,9.185,1.744,10.733,6.03,1.633,4.521.087,8.453-4.822,11.891.88,1.035,1.756,2.057,2.622,3.087.833.991,1.656,1.99,2.656,3.194h-3.689l-4.758-5.484V697.3h-2.742Zm2.864,2.975v12.607a6.518,6.518,0,0,0,5.632-6.493A6.267,6.267,0,0,0,647.15,676.058Z" transform="translate(-555.876 -672.897)" fill="#f8ad5f"/>
        <path id="Path_123" data-name="Path 123" d="M486.825,690.949l5.293,6.291H488.41l-4.678-5.422v5.445H480.91V673.15a9.249,9.249,0,0,1,10.556,5.429C493.183,682.57,492.244,687.64,486.825,690.949Zm-3.1-2.313c3.5-.662,5.788-3.391,5.667-6.529a6.182,6.182,0,0,0-5.667-6.068Z" transform="translate(-441.689 -672.851)" fill="#f8ad5f"/>
        <path id="Path_124" data-name="Path 124" d="M687.324,672.919a10.919,10.919,0,0,1,10.817,5.329,12.1,12.1,0,0,1,.218,13.359,10.8,10.8,0,0,1-11.035,5.629Zm2.835,3.243v17.993c4.344-.6,7.284-4.755,7.09-9.782C697.089,680.247,693.451,676.01,690.159,676.162Z" transform="translate(-585.956 -672.788)" fill="#f8ad5f"/>
        <path id="Path_125" data-name="Path 125" d="M360.7,697.2h-2.875v-5.5h-4.268v5.49h-2.769a10.912,10.912,0,0,1-.131-1.2c-.008-5.968-.02-11.937,0-17.9.011-2.939,1.883-5.047,4.542-5.211a4.928,4.928,0,0,1,5.447,4.733C360.809,684.1,360.7,690.592,360.7,697.2Zm-2.908-8.642c0-3.67.054-7.235-.03-10.8a1.844,1.844,0,0,0-2.1-1.941c-.759.118-1.971.978-2,1.553-.182,3.721-.093,7.455-.093,11.185Z" transform="translate(-350.642 -672.785)" fill="#f8ad5f"/>
        <path id="Path_126" data-name="Path 126" d="M534.825,672.679v2.8a8.972,8.972,0,0,0-7.11,4.314,10.031,10.031,0,0,0-1.422,6.343c.49,4.463,3.7,7.62,8.453,8.25v2.731a10.2,10.2,0,0,1-9.013-4.8,12.245,12.245,0,0,1-.63-13.678A11.225,11.225,0,0,1,534.825,672.679Z" transform="translate(-471.328 -672.655)" fill="#f8ad5f"/>
      </g>
    </g>
  </g>
</svg>
