<svg xmlns="http://www.w3.org/2000/svg" width="13.675" height="37.296" viewBox="0 0 13.675 37.296">
  <g id="Page-1" transform="translate(-29)">
    <g id="_013---Wine-Glass-and-Bottle" data-name="013---Wine-Glass-and-Bottle" transform="translate(29 0)">
      <path id="Shape" d="M32.276,13.24a14.663,14.663,0,0,1-1.336,3.392A15.933,15.933,0,0,0,29,24.242v9.946A3.112,3.112,0,0,0,32.108,37.3h7.459a3.112,3.112,0,0,0,3.108-3.108V24.242a16.037,16.037,0,0,0-.492-3.926,15.865,15.865,0,0,0-1.449-3.682,14.679,14.679,0,0,1-1.789-7.012V7.251a2.171,2.171,0,0,0-.622-4.111v-1.9A1.243,1.243,0,0,0,37.081,0H34.594a1.243,1.243,0,0,0-1.243,1.243v1.9a2.151,2.151,0,0,0-1.865,2.145A2.184,2.184,0,0,0,32.73,7.25V9.622A14.82,14.82,0,0,1,32.276,13.24Zm9.156,17.84H30.243V24.864H41.432Zm-1.865,4.973H32.108a1.865,1.865,0,0,1-1.865-1.865V32.323H41.432v1.865A1.865,1.865,0,0,1,39.567,36.053ZM34.594,1.243h2.486V3.108H34.594Zm-1.113,12.3a16.052,16.052,0,0,0,.491-3.925V7.459h.622a.622.622,0,0,0,0-1.243H33.522c-.016,0-.03-.015-.047-.019a.932.932,0,0,1,.188-1.846h4.351a.932.932,0,0,1,.932.932.943.943,0,0,1-.272.661A.928.928,0,0,1,38.2,6.2c-.017,0-.03.014-.047.019H37.081a.622.622,0,0,0,0,1.243H37.7V9.622a15.929,15.929,0,0,0,1.941,7.607,14.675,14.675,0,0,1,1.336,3.392,14.89,14.89,0,0,1,.435,3H30.263a14.683,14.683,0,0,1,1.769-6.391,15.878,15.878,0,0,0,1.45-3.682Z" transform="translate(-29 0)" fill="#f8ad5f"/>
      <path id="Shape-2" data-name="Shape" d="M37.622,43.243h2.486a.622.622,0,0,0,0-1.243H37.622a.622.622,0,0,0,0,1.243Z" transform="translate(-32.027 -15.893)" fill="#f8ad5f"/>
      <path id="Shape-3" data-name="Shape" d="M37.622,47.243h2.486a.622.622,0,0,0,0-1.243H37.622a.622.622,0,1,0,0,1.243Z" transform="translate(-32.027 -17.406)" fill="#f8ad5f"/>
    </g>
  </g>
</svg>
