<svg xmlns="http://www.w3.org/2000/svg" width="10.786" height="24.058" viewBox="0 0 10.786 24.058" class="wine-icon">
			  <g id="Group_8242" data-name="Group 8242" transform="translate(-5634 64)">
			    <path id="Shape" d="M8.678,13.026a4.437,4.437,0,0,0,2.05-2.744,4.253,4.253,0,0,0,.057-1.613L9.7.693A.805.805,0,0,0,8.9,0H1.984a.805.805,0,0,0-.795.693L.1,8.669a4.25,4.25,0,0,0,.057,1.613,4.437,4.437,0,0,0,2.05,2.745A3.674,3.674,0,0,1,4.04,16.164v4.771a.407.407,0,0,1-.355.4c-1.6.242-3.253,1.028-3.253,1.923a.8.8,0,0,0,.8.8h8.42a.8.8,0,0,0,.8-.8c0-.894-1.654-1.68-3.253-1.925a.407.407,0,0,1-.355-.4V16.163A3.674,3.674,0,0,1,8.678,13.026ZM1.984.8H8.9l.762,5.575a3.034,3.034,0,0,1-.7-.433A3.041,3.041,0,0,0,5,5.945a2.248,2.248,0,0,1-3,0,4.523,4.523,0,0,0-.665-.435Zm5.1,21.323a3.847,3.847,0,0,1,2.572,1.131l-8.42.012c.05-.215.917-.891,2.573-1.143a1.2,1.2,0,0,0,1.036-1.191V16.163a4.478,4.478,0,0,0-2.227-3.829A3.632,3.632,0,0,1,.937,10.089,3.464,3.464,0,0,1,.9,8.777l.328-2.406c.1.068.2.14.3.216A2.943,2.943,0,0,0,3.5,7.318a2.951,2.951,0,0,0,1.981-.732,2.248,2.248,0,0,1,3,0,3.186,3.186,0,0,0,1.3.662l.209,1.53a3.466,3.466,0,0,1-.04,1.312,3.632,3.632,0,0,1-1.678,2.245,4.478,4.478,0,0,0-2.227,3.83v4.771a1.2,1.2,0,0,0,1.036,1.19Z" transform="translate(5633.95 -64)" fill="#132236"/>
			    <path id="Shape-2" data-name="Shape" d="M5.825,23.71a2.02,2.02,0,0,1-.934-1.248,1.974,1.974,0,0,1-.008-.711.4.4,0,1,0-.795-.108,2.724,2.724,0,0,0,.023,1.012A2.825,2.825,0,0,0,5.417,24.4a.4.4,0,1,0,.407-.691Z" transform="translate(5631.553 -76.757)" fill="#132236"/>
			  </g>
			</svg>